sc_accu/accu.vcd
$date
     Nov 27, 2023       16:09:09
$end

$version
 SystemC 2.3.1-Accellera --- Nov 22 2019 04:57:47
$end

$timescale
     1 ps
$end

$scope module SystemC $end
$var wire    1  aaaaa  clk       $end
$var wire    1  aaaab  RESET       $end
$var wire    8  aaaac  DATA_IN [7:0]  $end
$var wire    8  aaaad  DATA_SUM [7:0]  $end
$upscope $end
$enddefinitions  $end

$comment
All initial values are dumped below at time 0 sec = 0 timescale units.
$end

$dumpvars
1aaaaa
1aaaab
b0 aaaac
b1100100 aaaad
$end

#50000
0aaaaa

#100000
1aaaaa

#150000
0aaaaa

#200000
1aaaaa

#250000
0aaaaa
0aaaab
b1 aaaac
b1100011 aaaad

#300000
1aaaaa

#350000
0aaaaa
b10 aaaac
b1100001 aaaad

#400000
1aaaaa

#450000
0aaaaa
b11 aaaac
b1011110 aaaad

#500000
1aaaaa

#550000
0aaaaa
b100 aaaac
b1011010 aaaad

#600000
1aaaaa

#650000
0aaaaa
b101 aaaac
b1010101 aaaad

#700000
1aaaaa

#750000
0aaaaa
b110 aaaac
b1001111 aaaad

#800000
1aaaaa

#850000
0aaaaa
b111 aaaac
b1001000 aaaad

#900000
1aaaaa

#950000
0aaaaa
b1000 aaaac
b1000000 aaaad

#1000000
1aaaaa

#1050000
0aaaaa
b1001 aaaac
b110111 aaaad

#1100000
1aaaaa

#1150000
0aaaaa
b1010 aaaac
b101101 aaaad

#1200000
1aaaaa

#1250000
0aaaaa
b1011 aaaac
b100010 aaaad

#1300000
1aaaaa

#1350000
0aaaaa
b1100 aaaac
b10110 aaaad

#1400000
1aaaaa

#1450000
0aaaaa
b1101 aaaac
b1001 aaaad

#1500000
1aaaaa

#1550000
0aaaaa
b1110 aaaac
b11111011 aaaad

#1600000
1aaaaa

#1650000
0aaaaa
b1111 aaaac
b11101100 aaaad

